…
    Parsed with column specification:
    cols(
      .default = col_double()
    )

    See spec(...) for full column specifications.

``` r
dig1
```

    # A tibble: 6,800 x 72
       subjectid trtmt   age  race   sex ejf_per ejfmeth chestx   bmi klevel
           <dbl> <dbl> <dbl> <dbl> <dbl>   <dbl>   <dbl>  <dbl> <dbl>  <dbl>
     1         1     0    66     1     1      40       2   0.5   20.1   NA  
     2         2     0    77     1     1      12       1   0.56  20.7    3.1
     3         3     0    72     1     2      36       1   0.68  25.5    5.1
     4         4     1    57     1     1      31       1   0.48  25.8   NA  
     5         5     0    74     1     1      15       1   0.53  25.7    4  
     6         6     0    69     2     2      45       1   0.7   27.8    4.3
     7         7     1    64     1     2      30       1   0.52  31.7    4.3
     8         8     1    60     2     1      39       1   0.4   25.1    5.1
     9         9     0    74     2     1      33       3   0.49  23.7    4.7
    10        10     1    64     1     2      24       1   0.52  28.7    4  
    # ... with 6,790 more rows, and 62 more variables: creat <dbl>,
    #   digdoser <dbl>, chfdur <dbl>, rales <dbl>, elevjvp <dbl>,
    #   pedema <dbl>, restdys <dbl>, exertdys <dbl>, actlimit <dbl>, s3 <dbl>,
    #   pulcong <dbl>, nsym <dbl>, heartrte <dbl>, diabp <dbl>, sysbp <dbl>,
    #   functcls <dbl>, chfetiol <dbl>, prevmi <dbl>, angina <dbl>,
    #   diabetes <dbl>, hyperten <dbl>, diguse <dbl>, diuretk <dbl>,
    #   diuret <dbl>, ksupp <dbl>, aceinhib <dbl>, nitrates <dbl>,
    #   hydral <dbl>, vasod <dbl>, digdose <dbl>, cvd <dbl>, cvddays <dbl>,
    #   whf <dbl>, whfdays <dbl>, dig <dbl>, digdays <dbl>, mi <dbl>,
…
