…
``` r
sim_obs
```

    # A tibble: 500 x 7
          id treated  out1    ps  out2 censor  out3
       <dbl>   <dbl> <dbl> <dbl> <dbl>  <dbl> <dbl>
     1  1001       1     1 0.809 202.       0   897
     2  1002       1     1 0.444 120.       0   725
     3  1003       0     1 0.486 284.       0   390
     4  1004       0     0 0.306 404.       1   266
     5  1005       0     1 0.102 138.       0    57
     6  1006       0     0 0.529 231.       0   108
     7  1007       1     0 0.427 250.       1   545
     8  1008       1     1 0.337 245.       0   663
     9  1009       0     0 0.192 273.       0   316
    10  1010       1     1 0.352  85.6      0   689
    # ... with 490 more rows
…
