…
## The Data Set after Initial Import

The `rhc_cleaning` data at this stage is a tibble (a lazy and surly data
frame) containing 5735 observations (rows) on 57 variables (columns).
The observations describe subjects who are critically ill, and most
variables were obtained during day 1 of a hospitalization.

``` r
rhc_cleaning
```

    # A tibble: 5,735 x 57
       ptid  swang1 death sadmdte dschdte dthdte lstctdte   age sex     edu
       <chr> <fct>  <fct>   <dbl>   <dbl>  <dbl>    <dbl> <dbl> <fct> <dbl>
     1 00005 No RHC No      11142   11151     NA    11382  70.3 Male  12   
     2 00007 RHC    Yes     11799   11844  11844    11844  78.2 Fema~ 12   
     3 00009 RHC    No      12083   12143     NA    12400  46.1 Fema~ 14.1 
     4 00010 No RHC Yes     11146   11183  11183    11182  75.3 Fema~  9   
     5 00011 RHC    Yes     12035   12037  12037    12036  67.9 Male   9.95
     6 00012 No RHC No      12389   12396     NA    12590  86.1 Fema~  8   
     7 00013 No RHC No      12381   12423     NA    12616  55.0 Male  14   
     8 00014 No RHC Yes     11453   11487  11491    11490  43.6 Male  12   
     9 00016 No RHC No      12426   12437     NA    12560  18.0 Fema~ 12.8 
    10 00017 RHC    No      11381   11400     NA    11590  48.4 Fema~ 11.0 
    # ... with 5,725 more rows, and 47 more variables: income <fct>,
    #   ninsclas <fct>, race <fct>, cat1 <fct>, dnr1 <fct>, wtkilo1 <dbl>,
    #   hrt1 <dbl>, meanbp1 <dbl>, resp1 <dbl>, temp1 <dbl>, card <fct>,
    #   gastr <fct>, hema <fct>, meta <fct>, neuro <fct>, ortho <fct>,
    #   renal <fct>, resp <fct>, seps <fct>, trauma <fct>, amihx <dbl>,
    #   ca <fct>, cardiohx <dbl>, chfhx <dbl>, chrpulhx <dbl>, dementhx <dbl>,
    #   gibledhx <dbl>, immunhx <dbl>, liverhx <dbl>, malighx <dbl>,
    #   psychhx <dbl>, renalhx <dbl>, transhx <dbl>, aps1 <dbl>,
    #   das2d3pc <dbl>, scoma1 <dbl>, surv2md1 <dbl>, alb1 <dbl>, bili1 <dbl>,
    #   crea1 <dbl>, hema1 <dbl>, paco21 <dbl>, pafi1 <dbl>, ph1 <dbl>,
    #   pot1 <dbl>, sod1 <dbl>, wblc1 <dbl>

## Any missingness?

``` r
rhc_cleaning %>%
    miss_var_summary()
```

    # A tibble: 57 x 3
       variable n_miss pct_miss
       <chr>     <int>    <dbl>
     1 dthdte     2013  35.1   
     2 dschdte       1   0.0174
     3 ptid          0   0     
     4 swang1        0   0     
     5 death         0   0     
     6 sadmdte       0   0     
     7 lstctdte      0   0     
     8 age           0   0     
     9 sex           0   0     
    10 edu           0   0     
    # ... with 47 more rows
…
