…
The Data Set is 100% fictional, and is available as `toy2019.csv` on the course website.

-   It contains data on 400 subjects (140 treated and 260 controls) on treatment status, six covariates, and three outcomes, with no missing observations anywhere.
-   We assume that a logical argument suggests that the square of `covA`, as well as the interactions of `covB` with `covC` and with `covD` should be related to treatment assignment, and thus should be included in our propensity model.
-   Our objective is to estimate the average causal effect of treatment (as compared to control) on each of the three outcomes, without propensity adjustment, and then with propensity matching, subclassification, weighting and regression adjustment using the propensity score.

``` r
toy <- read.csv("toy2019.csv") %>% tbl_df

toy
```

    # A tibble: 400 x 11
       subject treated  covA  covB  covC  covD  covE covF  out1.cost out2.event
       <fct>     <int> <dbl> <int> <dbl> <dbl> <int> <fct>     <int> <fct>     
     1 T_001         0  4.13     0 10      8.2    14 2-Mi~        34 No        
     2 T_002         1  4.58     1  8.69  10.1    13 1-Low        63 No        
     3 T_003         0  1.28     0 11.8    5.6    14 1-Low        61 No        
     4 T_004         0  3.11     0 10.9   10.9    10 1-Low        34 No        
     5 T_005         1  3.31     0 10.5    9      14 3-Hi~        38 No        
     6 T_006         0  4.08     0 13.9   10       5 3-Hi~        51 No        
     7 T_007         0  3.86     1 13      6.1    10 3-Hi~        53 Yes       
     8 T_008         0  2.58     0 12.6    5.2     4 2-Mi~        53 Yes       
     9 T_009         0  3.46     0 10.1    8.8    10 1-Low        61 Yes       
    10 T_010         0  3.11     1 13.3    4.8    10 1-Low        28 No        
    # ... with 390 more rows, and 1 more variable: out3.time <int>
…
toy.szd <- data_frame(covs, Overall = d.all, Q1 = d.q1, Q2 = d.q2, Q3 = d.q3, Q4 = d.q4, Q5 = d.q5)
toy.szd <- gather(toy.szd, "quint", "sz.diff", 2:7)
toy.szd
```

    # A tibble: 72 x 3
       covs        quint   sz.diff
       <chr>       <chr>     <dbl>
     1 covA        Overall   14.3 
     2 covB        Overall   45.4 
     3 covC        Overall  -49.6 
     4 covD        Overall   23.8 
     5 covE        Overall  -48.6 
     6 covF.Middle Overall    1.81
     7 covF.High   Overall   40.5 
     8 Asqr        Overall   16.9 
     9 BC          Overall   40.0 
    10 BD          Overall   48.3 
    # ... with 62 more rows
…
