…
    -- Variable type:numeric ----------------------------------------------------------------------------
     variable missing complete    n mean   sd p0 p25 p50 p75 p100
       PREVMI       0     6799 6799 0.65 0.48  0   0   1   1    1

``` r
set.seed(500)

dig2 <- dig1_raw %>% 
    sample_n(size = 1000) %>%
    clean_names()

dig2
```

    # A tibble: 1,000 x 72
       subjectid trtmt   age  race   sex ejf_per ejfmeth chestx   bmi klevel
           <dbl> <dbl> <dbl> <dbl> <dbl>   <dbl>   <dbl>  <dbl> <dbl>  <dbl>
     1      5669     1    67     1     2      44       3  0.51   25.6    4.2
     2      4930     1    41     1     1      23       2  0.49   32.5    5.3
     3      6631     1    49     1     1      24       1  0.5    21.3   NA  
     4      3179     1    56     1     1      21       1  0.45   26.3    3.7
     5      5521     0    72     1     1      17       1  0.5    25.1   NA  
     6      1399     0    74     1     1      31       1  0.47   21.3   NA  
     7      3481     0    56     2     1      25       1  0.570  20.3    4.7
     8      6287     0    67     1     1      32       3  0.5    34.2    4.2
     9      5630     0    68     1     1      26       3  0.41   24.8    5.1
    10      4833     1    60     1     1      25       1  0.570  29.4    5.5
    # ... with 990 more rows, and 62 more variables: creat <dbl>,
    #   digdoser <dbl>, chfdur <dbl>, rales <dbl>, elevjvp <dbl>,
    #   pedema <dbl>, restdys <dbl>, exertdys <dbl>, actlimit <dbl>, s3 <dbl>,
    #   pulcong <dbl>, nsym <dbl>, heartrte <dbl>, diabp <dbl>, sysbp <dbl>,
    #   functcls <dbl>, chfetiol <dbl>, prevmi <dbl>, angina <dbl>,
    #   diabetes <dbl>, hyperten <dbl>, diguse <dbl>, diuretk <dbl>,
    #   diuret <dbl>, ksupp <dbl>, aceinhib <dbl>, nitrates <dbl>,
    #   hydral <dbl>, vasod <dbl>, digdose <dbl>, cvd <dbl>, cvddays <dbl>,
    #   whf <dbl>, whfdays <dbl>, dig <dbl>, digdays <dbl>, mi <dbl>,
…
